{
  "tracks": {
    "href": "https://api.spotify.com/v1/search?query=Black&type=track&market=BR&offset=0&limit=5",
    "items": [
      {
        "album": {
          "album_type": "album",
          "artists": [
            {
              "external_urls": {
                "spotify": "https://open.spotify.com/artist/711MCceyCBcFnzjGY4Q7Un"
              },
              "href": "https://api.spotify.com/v1/artists/711MCceyCBcFnzjGY4Q7Un",
              "id": "711MCceyCBcFnzjGY4Q7Un",
              "name": "AC/DC",
              "type": "artist",
              "uri": "spotify:artist:711MCceyCBcFnzjGY4Q7Un"
            }
          ],
          "available_markets": [
            "AD",
            "AR",
            "AT",
            "AU",
            "BE",
            "BG",
            "BO",
            "BR",
            "CA",
            "CH",
            "CL",
            "CO",
            "CR",
            "CY",
            "CZ",
            "DE",
            "DK",
            "DO",
            "EC",
            "EE",
            "ES",
            "FI",
            "FR",
            "GB",
            "GR",
            "GT",
            "HK",
            "HN",
            "HU",
            "ID",
            "IE",
            "IL",
            "IS",
            "IT",
            "JP",
            "LI",
            "LT",
            "LU",
            "LV",
            "MC",
            "MT",
            "MX",
            "MY",
            "NI",
            "NL",
            "NO",
            "NZ",
            "PA",
            "PE",
            "PH",
            "PL",
            "PT",
            "PY",
            "RO",
            "SE",
            "SG",
            "SK",
            "SV",
            "TH",
            "TR",
            "TW",
            "US",
            "UY",
            "VN",
            "ZA"
          ],
          "external_urls": {
            "spotify": "https://open.spotify.com/album/6mUdeDZCsExyJLMdAfDuwh"
          },
          "href": "https://api.spotify.com/v1/albums/6mUdeDZCsExyJLMdAfDuwh",
          "id": "6mUdeDZCsExyJLMdAfDuwh",
          "images": [
            {
              "height": 640,
              "url": "https://i.scdn.co/image/52d83377fe9d7fc838deeb859499f3973adf903f",
              "width": 640
            },
            {
              "height": 300,
              "url": "https://i.scdn.co/image/b7b31914e0c4951249fad37271248212c8ac3025",
              "width": 300
            },
            {
              "height": 64,
              "url": "https://i.scdn.co/image/184dd6719f7c5317a08505d4d67795583adfb392",
              "width": 64
            }
          ],
          "name": "Back In Black",
          "release_date": "1980-07-25",
          "release_date_precision": "day",
          "type": "album",
          "uri": "spotify:album:6mUdeDZCsExyJLMdAfDuwh"
        },
        "artists": [
          {
            "external_urls": {
              "spotify": "https://open.spotify.com/artist/711MCceyCBcFnzjGY4Q7Un"
            },
            "href": "https://api.spotify.com/v1/artists/711MCceyCBcFnzjGY4Q7Un",
            "id": "711MCceyCBcFnzjGY4Q7Un",
            "name": "AC/DC",
            "type": "artist",
            "uri": "spotify:artist:711MCceyCBcFnzjGY4Q7Un"
          }
        ],
        "available_markets": [
          "AD",
          "AR",
          "AT",
          "AU",
          "BE",
          "BG",
          "BO",
          "BR",
          "CA",
          "CH",
          "CL",
          "CO",
          "CR",
          "CY",
          "CZ",
          "DE",
          "DK",
          "DO",
          "EC",
          "EE",
          "ES",
          "FI",
          "FR",
          "GB",
          "GR",
          "GT",
          "HK",
          "HN",
          "HU",
          "ID",
          "IE",
          "IL",
          "IS",
          "IT",
          "JP",
          "LI",
          "LT",
          "LU",
          "LV",
          "MC",
          "MT",
          "MX",
          "MY",
          "NI",
          "NL",
          "NO",
          "NZ",
          "PA",
          "PE",
          "PH",
          "PL",
          "PT",
          "PY",
          "RO",
          "SE",
          "SG",
          "SK",
          "SV",
          "TH",
          "TR",
          "TW",
          "US",
          "UY",
          "VN",
          "ZA"
        ],
        "disc_number": 1,
        "duration_ms": 255493,
        "explicit": false,
        "external_ids": {
          "isrc": "AUAP08000046"
        },
        "external_urls": {
          "spotify": "https://open.spotify.com/track/08mG3Y1vljYA6bvDt4Wqkj"
        },
        "href": "https://api.spotify.com/v1/tracks/08mG3Y1vljYA6bvDt4Wqkj",
        "id": "08mG3Y1vljYA6bvDt4Wqkj",
        "is_local": false,
        "name": "Back In Black",
        "popularity": 82,
        "preview_url": "https://p.scdn.co/mp3-preview/506bc9a0485990973449b0467791e06174371284?cid=b0749b2d1eda4ef084b74029c13a0670",
        "track_number": 6,
        "type": "track",
        "uri": "spotify:track:08mG3Y1vljYA6bvDt4Wqkj"
      },
      {
        "album": {
          "album_type": "album",
          "artists": [
            {
              "external_urls": {
                "spotify": "https://open.spotify.com/artist/1w5Kfo2jwwIPruYS2UWh56"
              },
              "href": "https://api.spotify.com/v1/artists/1w5Kfo2jwwIPruYS2UWh56",
              "id": "1w5Kfo2jwwIPruYS2UWh56",
              "name": "Pearl Jam",
              "type": "artist",
              "uri": "spotify:artist:1w5Kfo2jwwIPruYS2UWh56"
            }
          ],
          "available_markets": [
            "AD",
            "AR",
            "AT",
            "AU",
            "BE",
            "BG",
            "BO",
            "BR",
            "CA",
            "CH",
            "CL",
            "CO",
            "CR",
            "CY",
            "CZ",
            "DE",
            "DK",
            "DO",
            "EC",
            "EE",
            "ES",
            "FI",
            "FR",
            "GB",
            "GR",
            "GT",
            "HK",
            "HN",
            "HU",
            "ID",
            "IE",
            "IL",
            "IS",
            "IT",
            "JP",
            "LI",
            "LT",
            "LU",
            "LV",
            "MC",
            "MT",
            "MX",
            "MY",
            "NI",
            "NL",
            "NO",
            "NZ",
            "PA",
            "PE",
            "PH",
            "PL",
            "PT",
            "PY",
            "RO",
            "SE",
            "SG",
            "SK",
            "SV",
            "TH",
            "TR",
            "TW",
            "US",
            "UY",
            "VN",
            "ZA"
          ],
          "external_urls": {
            "spotify": "https://open.spotify.com/album/5B4PYA7wNN4WdEXdIJu58a"
          },
          "href": "https://api.spotify.com/v1/albums/5B4PYA7wNN4WdEXdIJu58a",
          "id": "5B4PYA7wNN4WdEXdIJu58a",
          "images": [
            {
              "height": 640,
              "url": "https://i.scdn.co/image/425e1fef6d70a48a103dfd168a556b7f72f72865",
              "width": 640
            },
            {
              "height": 300,
              "url": "https://i.scdn.co/image/23b5560068ee7324ee780841d0c20722ce9ecfde",
              "width": 300
            },
            {
              "height": 64,
              "url": "https://i.scdn.co/image/c06b7ebaeb4c30631a9a3e448e7e16bda9aab8a8",
              "width": 64
            }
          ],
          "name": "Ten",
          "release_date": "1991-08-27",
          "release_date_precision": "day",
          "type": "album",
          "uri": "spotify:album:5B4PYA7wNN4WdEXdIJu58a"
        },
        "artists": [
          {
            "external_urls": {
              "spotify": "https://open.spotify.com/artist/1w5Kfo2jwwIPruYS2UWh56"
            },
            "href": "https://api.spotify.com/v1/artists/1w5Kfo2jwwIPruYS2UWh56",
            "id": "1w5Kfo2jwwIPruYS2UWh56",
            "name": "Pearl Jam",
            "type": "artist",
            "uri": "spotify:artist:1w5Kfo2jwwIPruYS2UWh56"
          }
        ],
        "available_markets": [
          "AD",
          "AR",
          "AT",
          "AU",
          "BE",
          "BG",
          "BO",
          "BR",
          "CA",
          "CH",
          "CL",
          "CO",
          "CR",
          "CY",
          "CZ",
          "DE",
          "DK",
          "DO",
          "EC",
          "EE",
          "ES",
          "FI",
          "FR",
          "GB",
          "GR",
          "GT",
          "HK",
          "HN",
          "HU",
          "ID",
          "IE",
          "IL",
          "IS",
          "IT",
          "JP",
          "LI",
          "LT",
          "LU",
          "LV",
          "MC",
          "MT",
          "MX",
          "MY",
          "NI",
          "NL",
          "NO",
          "NZ",
          "PA",
          "PE",
          "PH",
          "PL",
          "PT",
          "PY",
          "RO",
          "SE",
          "SG",
          "SK",
          "SV",
          "TH",
          "TR",
          "TW",
          "US",
          "UY",
          "VN",
          "ZA"
        ],
        "disc_number": 1,
        "duration_ms": 342653,
        "explicit": false,
        "external_ids": {
          "isrc": "USSM19100412"
        },
        "external_urls": {
          "spotify": "https://open.spotify.com/track/5Xak5fmy089t0FYmh3VJiY"
        },
        "href": "https://api.spotify.com/v1/tracks/5Xak5fmy089t0FYmh3VJiY",
        "id": "5Xak5fmy089t0FYmh3VJiY",
        "is_local": false,
        "name": "Black",
        "popularity": 74,
        "preview_url": "https://p.scdn.co/mp3-preview/c6773a34d5fae11fb1c2b85b9c5efdac2aa693ec?cid=b0749b2d1eda4ef084b74029c13a0670",
        "track_number": 5,
        "type": "track",
        "uri": "spotify:track:5Xak5fmy089t0FYmh3VJiY"
      },
      {
        "album": {
          "album_type": "album",
          "artists": [
            {
              "external_urls": {
                "spotify": "https://open.spotify.com/artist/6Q192DXotxtaysaqNPy5yR"
              },
              "href": "https://api.spotify.com/v1/artists/6Q192DXotxtaysaqNPy5yR",
              "id": "6Q192DXotxtaysaqNPy5yR",
              "name": "Amy Winehouse",
              "type": "artist",
              "uri": "spotify:artist:6Q192DXotxtaysaqNPy5yR"
            }
          ],
          "available_markets": [
            "AD",
            "AR",
            "AT",
            "AU",
            "BE",
            "BG",
            "BO",
            "BR",
            "CA",
            "CH",
            "CL",
            "CO",
            "CR",
            "CY",
            "CZ",
            "DE",
            "DK",
            "DO",
            "EC",
            "EE",
            "ES",
            "FI",
            "FR",
            "GB",
            "GR",
            "GT",
            "HK",
            "HN",
            "HU",
            "ID",
            "IE",
            "IL",
            "IS",
            "IT",
            "JP",
            "LI",
            "LT",
            "LU",
            "LV",
            "MC",
            "MT",
            "MX",
            "MY",
            "NI",
            "NL",
            "NO",
            "NZ",
            "PA",
            "PE",
            "PH",
            "PL",
            "PT",
            "PY",
            "RO",
            "SE",
            "SG",
            "SK",
            "SV",
            "TH",
            "TR",
            "TW",
            "US",
            "UY",
            "VN",
            "ZA"
          ],
          "external_urls": {
            "spotify": "https://open.spotify.com/album/6GJCGWfI95aeRsdtVB52vc"
          },
          "href": "https://api.spotify.com/v1/albums/6GJCGWfI95aeRsdtVB52vc",
          "id": "6GJCGWfI95aeRsdtVB52vc",
          "images": [
            {
              "height": 640,
              "url": "https://i.scdn.co/image/d1b3fe2214267fb5479bd7311f610b3ad5422570",
              "width": 640
            },
            {
              "height": 300,
              "url": "https://i.scdn.co/image/0c543026b1902c1c3eb9761757245a3703827bf5",
              "width": 300
            },
            {
              "height": 64,
              "url": "https://i.scdn.co/image/eae28a2832f600c96748c7cf405da3b841dd9ce4",
              "width": 64
            }
          ],
          "name": "Back To Black",
          "release_date": "2006-01-01",
          "release_date_precision": "day",
          "type": "album",
          "uri": "spotify:album:6GJCGWfI95aeRsdtVB52vc"
        },
        "artists": [
          {
            "external_urls": {
              "spotify": "https://open.spotify.com/artist/6Q192DXotxtaysaqNPy5yR"
            },
            "href": "https://api.spotify.com/v1/artists/6Q192DXotxtaysaqNPy5yR",
            "id": "6Q192DXotxtaysaqNPy5yR",
            "name": "Amy Winehouse",
            "type": "artist",
            "uri": "spotify:artist:6Q192DXotxtaysaqNPy5yR"
          }
        ],
        "available_markets": [
          "AD",
          "AR",
          "AT",
          "AU",
          "BE",
          "BG",
          "BO",
          "BR",
          "CA",
          "CH",
          "CL",
          "CO",
          "CR",
          "CY",
          "CZ",
          "DE",
          "DK",
          "DO",
          "EC",
          "EE",
          "ES",
          "FI",
          "FR",
          "GB",
          "GR",
          "GT",
          "HK",
          "HN",
          "HU",
          "ID",
          "IE",
          "IL",
          "IS",
          "IT",
          "JP",
          "LI",
          "LT",
          "LU",
          "LV",
          "MC",
          "MT",
          "MX",
          "MY",
          "NI",
          "NL",
          "NO",
          "NZ",
          "PA",
          "PE",
          "PH",
          "PL",
          "PT",
          "PY",
          "RO",
          "SE",
          "SG",
          "SK",
          "SV",
          "TH",
          "TR",
          "TW",
          "US",
          "UY",
          "VN",
          "ZA"
        ],
        "disc_number": 1,
        "duration_ms": 240440,
        "explicit": true,
        "external_ids": {
          "isrc": "GBUM70604698"
        },
        "external_urls": {
          "spotify": "https://open.spotify.com/track/2s4BsyV3KhhrtsdtNfzoqb"
        },
        "href": "https://api.spotify.com/v1/tracks/2s4BsyV3KhhrtsdtNfzoqb",
        "id": "2s4BsyV3KhhrtsdtNfzoqb",
        "is_local": false,
        "name": "Back To Black",
        "popularity": 75,
        "preview_url": null,
        "track_number": 5,
        "type": "track",
        "uri": "spotify:track:2s4BsyV3KhhrtsdtNfzoqb"
      },
      {
        "album": {
          "album_type": "album",
          "artists": [
            {
              "external_urls": {
                "spotify": "https://open.spotify.com/artist/2YZyLoL8N0Wb9xBt1NhZWg"
              },
              "href": "https://api.spotify.com/v1/artists/2YZyLoL8N0Wb9xBt1NhZWg",
              "id": "2YZyLoL8N0Wb9xBt1NhZWg",
              "name": "Kendrick Lamar",
              "type": "artist",
              "uri": "spotify:artist:2YZyLoL8N0Wb9xBt1NhZWg"
            },
            {
              "external_urls": {
                "spotify": "https://open.spotify.com/artist/1Xyo4u8uXC1ZmMpatF05PJ"
              },
              "href": "https://api.spotify.com/v1/artists/1Xyo4u8uXC1ZmMpatF05PJ",
              "id": "1Xyo4u8uXC1ZmMpatF05PJ",
              "name": "The Weeknd",
              "type": "artist",
              "uri": "spotify:artist:1Xyo4u8uXC1ZmMpatF05PJ"
            },
            {
              "external_urls": {
                "spotify": "https://open.spotify.com/artist/7tYKF4w9nC0nq9CsPZTHyP"
              },
              "href": "https://api.spotify.com/v1/artists/7tYKF4w9nC0nq9CsPZTHyP",
              "id": "7tYKF4w9nC0nq9CsPZTHyP",
              "name": "SZA",
              "type": "artist",
              "uri": "spotify:artist:7tYKF4w9nC0nq9CsPZTHyP"
            }
          ],
          "available_markets": [
            "AD",
            "AR",
            "AT",
            "AU",
            "BE",
            "BG",
            "BO",
            "BR",
            "CA",
            "CH",
            "CL",
            "CO",
            "CR",
            "CY",
            "CZ",
            "DE",
            "DK",
            "DO",
            "EC",
            "EE",
            "ES",
            "FI",
            "FR",
            "GB",
            "GR",
            "GT",
            "HK",
            "HN",
            "HU",
            "ID",
            "IE",
            "IL",
            "IS",
            "IT",
            "JP",
            "LI",
            "LT",
            "LU",
            "LV",
            "MC",
            "MT",
            "MX",
            "MY",
            "NI",
            "NL",
            "NO",
            "NZ",
            "PA",
            "PE",
            "PH",
            "PL",
            "PT",
            "PY",
            "RO",
            "SE",
            "SG",
            "SK",
            "SV",
            "TH",
            "TR",
            "TW",
            "US",
            "UY",
            "VN",
            "ZA"
          ],
          "external_urls": {
            "spotify": "https://open.spotify.com/album/5f8pMn2A5d5lKMDapYbCmp"
          },
          "href": "https://api.spotify.com/v1/albums/5f8pMn2A5d5lKMDapYbCmp",
          "id": "5f8pMn2A5d5lKMDapYbCmp",
          "images": [
            {
              "height": 640,
              "url": "https://i.scdn.co/image/dfc8859cfa4ac0a761742f6b64e45f4ea65ece50",
              "width": 640
            },
            {
              "height": 300,
              "url": "https://i.scdn.co/image/5a722077548b7d48abfd93324592026337789a8e",
              "width": 300
            },
            {
              "height": 64,
              "url": "https://i.scdn.co/image/955b112723eae662639f2322054b7a1cb8f4ad1a",
              "width": 64
            }
          ],
          "name": "Black Panther The Album Music From And Inspired By",
          "release_date": "2018-02-09",
          "release_date_precision": "day",
          "type": "album",
          "uri": "spotify:album:5f8pMn2A5d5lKMDapYbCmp"
        },
        "artists": [
          {
            "external_urls": {
              "spotify": "https://open.spotify.com/artist/2YZyLoL8N0Wb9xBt1NhZWg"
            },
            "href": "https://api.spotify.com/v1/artists/2YZyLoL8N0Wb9xBt1NhZWg",
            "id": "2YZyLoL8N0Wb9xBt1NhZWg",
            "name": "Kendrick Lamar",
            "type": "artist",
            "uri": "spotify:artist:2YZyLoL8N0Wb9xBt1NhZWg"
          },
          {
            "external_urls": {
              "spotify": "https://open.spotify.com/artist/7tYKF4w9nC0nq9CsPZTHyP"
            },
            "href": "https://api.spotify.com/v1/artists/7tYKF4w9nC0nq9CsPZTHyP",
            "id": "7tYKF4w9nC0nq9CsPZTHyP",
            "name": "SZA",
            "type": "artist",
            "uri": "spotify:artist:7tYKF4w9nC0nq9CsPZTHyP"
          }
        ],
        "available_markets": [
          "AD",
          "AR",
          "AT",
          "AU",
          "BE",
          "BG",
          "BO",
          "BR",
          "CA",
          "CH",
          "CL",
          "CO",
          "CR",
          "CY",
          "CZ",
          "DE",
          "DK",
          "DO",
          "EC",
          "EE",
          "ES",
          "FI",
          "FR",
          "GB",
          "GR",
          "GT",
          "HK",
          "HN",
          "HU",
          "ID",
          "IE",
          "IL",
          "IS",
          "IT",
          "JP",
          "LI",
          "LT",
          "LU",
          "LV",
          "MC",
          "MT",
          "MX",
          "MY",
          "NI",
          "NL",
          "NO",
          "NZ",
          "PA",
          "PE",
          "PH",
          "PL",
          "PT",
          "PY",
          "RO",
          "SE",
          "SG",
          "SK",
          "SV",
          "TH",
          "TR",
          "TW",
          "US",
          "UY",
          "VN",
          "ZA"
        ],
        "disc_number": 1,
        "duration_ms": 232186,
        "explicit": true,
        "external_ids": {
          "isrc": "USUM71713947"
        },
        "external_urls": {
          "spotify": "https://open.spotify.com/track/2Imq77E6CEJR5TPUxlJvTY"
        },
        "href": "https://api.spotify.com/v1/tracks/2Imq77E6CEJR5TPUxlJvTY",
        "id": "2Imq77E6CEJR5TPUxlJvTY",
        "is_local": false,
        "name": "All The Stars (with SZA)",
        "popularity": 87,
        "preview_url": null,
        "track_number": 2,
        "type": "track",
        "uri": "spotify:track:2Imq77E6CEJR5TPUxlJvTY"
      },
      {
        "album": {
          "album_type": "album",
          "artists": [
            {
              "external_urls": {
                "spotify": "https://open.spotify.com/artist/5xUf6j4upBrXZPg6AI4MRK"
              },
              "href": "https://api.spotify.com/v1/artists/5xUf6j4upBrXZPg6AI4MRK",
              "id": "5xUf6j4upBrXZPg6AI4MRK",
              "name": "Soundgarden",
              "type": "artist",
              "uri": "spotify:artist:5xUf6j4upBrXZPg6AI4MRK"
            }
          ],
          "available_markets": [
            "AD",
            "AR",
            "AT",
            "AU",
            "BE",
            "BG",
            "BO",
            "BR",
            "CA",
            "CH",
            "CL",
            "CO",
            "CR",
            "CY",
            "CZ",
            "DE",
            "DK",
            "DO",
            "EC",
            "EE",
            "ES",
            "FI",
            "FR",
            "GB",
            "GR",
            "GT",
            "HK",
            "HN",
            "HU",
            "ID",
            "IE",
            "IL",
            "IS",
            "IT",
            "JP",
            "LI",
            "LT",
            "LU",
            "LV",
            "MC",
            "MT",
            "MX",
            "MY",
            "NI",
            "NL",
            "NO",
            "NZ",
            "PA",
            "PE",
            "PH",
            "PL",
            "PT",
            "PY",
            "RO",
            "SE",
            "SG",
            "SK",
            "SV",
            "TH",
            "TR",
            "TW",
            "US",
            "UY",
            "VN",
            "ZA"
          ],
          "external_urls": {
            "spotify": "https://open.spotify.com/album/4ePl0meknOkJ892O9yszEY"
          },
          "href": "https://api.spotify.com/v1/albums/4ePl0meknOkJ892O9yszEY",
          "id": "4ePl0meknOkJ892O9yszEY",
          "images": [
            {
              "height": 630,
              "url": "https://i.scdn.co/image/0171c2a21818f9c204fc4c6e42683feebcb63672",
              "width": 640
            },
            {
              "height": 295,
              "url": "https://i.scdn.co/image/6a31a818b54204f6787e64fce17ed7c1e91e0a2f",
              "width": 300
            },
            {
              "height": 63,
              "url": "https://i.scdn.co/image/0ac2bafb57e4833ffdb48c683dd8045771001c97",
              "width": 64
            }
          ],
          "name": "Superunknown (20th Anniversary)",
          "release_date": "1994-03-09",
          "release_date_precision": "day",
          "type": "album",
          "uri": "spotify:album:4ePl0meknOkJ892O9yszEY"
        },
        "artists": [
          {
            "external_urls": {
              "spotify": "https://open.spotify.com/artist/5xUf6j4upBrXZPg6AI4MRK"
            },
            "href": "https://api.spotify.com/v1/artists/5xUf6j4upBrXZPg6AI4MRK",
            "id": "5xUf6j4upBrXZPg6AI4MRK",
            "name": "Soundgarden",
            "type": "artist",
            "uri": "spotify:artist:5xUf6j4upBrXZPg6AI4MRK"
          }
        ],
        "available_markets": [
          "AD",
          "AR",
          "AT",
          "AU",
          "BE",
          "BG",
          "BO",
          "BR",
          "CA",
          "CH",
          "CL",
          "CO",
          "CR",
          "CY",
          "CZ",
          "DE",
          "DK",
          "DO",
          "EC",
          "EE",
          "ES",
          "FI",
          "FR",
          "GB",
          "GR",
          "GT",
          "HK",
          "HN",
          "HU",
          "ID",
          "IE",
          "IL",
          "IS",
          "IT",
          "JP",
          "LI",
          "LT",
          "LU",
          "LV",
          "MC",
          "MT",
          "MX",
          "MY",
          "NI",
          "NL",
          "NO",
          "NZ",
          "PA",
          "PE",
          "PH",
          "PL",
          "PT",
          "PY",
          "RO",
          "SE",
          "SG",
          "SK",
          "SV",
          "TH",
          "TR",
          "TW",
          "US",
          "UY",
          "VN",
          "ZA"
        ],
        "disc_number": 1,
        "duration_ms": 318586,
        "explicit": false,
        "external_ids": {
          "isrc": "USAM19400007"
        },
        "external_urls": {
          "spotify": "https://open.spotify.com/track/3ztCt91U2wGkDZuzbCwH6H"
        },
        "href": "https://api.spotify.com/v1/tracks/3ztCt91U2wGkDZuzbCwH6H",
        "id": "3ztCt91U2wGkDZuzbCwH6H",
        "is_local": false,
        "name": "Black Hole Sun",
        "popularity": 72,
        "preview_url": null,
        "track_number": 7,
        "type": "track",
        "uri": "spotify:track:3ztCt91U2wGkDZuzbCwH6H"
      }
    ],
    "limit": 5,
    "next": "https://api.spotify.com/v1/search?query=Black&type=track&market=BR&offset=5&limit=5",
    "offset": 0,
    "previous": null,
    "total": 410551
  }
}
